{
  "propertyPanelToggleStates" : {

  },
  "deviceOrientation" : 0,
  "sharedPrototype" : 0,
  "contentScale" : 1,
  "deviceType" : "fullscreen",
  "selectedHand" : "",
  "updateDelay" : 0.3,
  "deviceScale" : 1,
  "foldedCodeRanges" : [

  ],
  "orientation" : 0,
  "projectId" : "51E1ED0B-5884-4C7A-A870-7F9435B3D61B"
}