{
  "_class": "group",
  "do_objectID": "7551DDD3-978E-414F-B53B-6C7E918A3B65",
  "exportOptions": {
    "_class": "exportOptions",
    "exportFormats": [
    ],
    "includedLayerIds": [
    ],
    "layerOptions": 0,
    "shouldTrim": false
  },
  "frame": {
    "_class": "rect",
    "constrainProportions": false,
    "height": 50,
    "width": 83,
    "x": 311,
    "y": 0
  },
  "hasClickThrough": false,
  "isFlippedHorizontal": false,
  "isFlippedVertical": false,
  "isLocked": false,
  "isVisible": true,
  "layerListExpandedType": 0,
  "layers": [
    {
      "class": "shapeGroup",
      "id": "2073A0E9-0940-48BA-AE21-ED46DF6CC314"
    },
    {
      "class": "shapeGroup",
      "id": "17B94DBF-CE28-423B-B192-B6CBBAB8F62C"
    },
    {
      "class": "group",
      "id": "804183FC-D085-4422-9CCA-3B7CDB93E96C"
    },
    {
      "class": "text",
      "id": "4C38211C-6695-4407-9F3C-14FCBB76F290"
    }
  ],
  "name": "tab-builds",
  "nameIsFixed": true,
  "resizingConstraint": 63,
  "resizingType": 0,
  "rotation": 0,
  "shouldBreakMaskChain": false,
  "style": {
    "_class": "style",
    "endDecorationType": 0,
    "miterLimit": 10,
    "startDecorationType": 0
  }
}