{
  "_class": "group",
  "do_objectID": "43DE37AA-828C-47AF-BD72-D11CF7BF3942",
  "exportOptions": {
    "_class": "exportOptions",
    "exportFormats": [
    ],
    "includedLayerIds": [
    ],
    "layerOptions": 0,
    "shouldTrim": false
  },
  "frame": {
    "_class": "rect",
    "constrainProportions": false,
    "height": 28,
    "width": 527,
    "x": 607,
    "y": 782
  },
  "hasClickThrough": false,
  "isFlippedHorizontal": false,
  "isFlippedVertical": false,
  "isLocked": false,
  "isVisible": true,
  "layerListExpandedType": 2,
  "layers": [
    {
      "class": "shapeGroup",
      "id": "F264241C-F4BD-49F6-8401-D88E25E3D3E2"
    },
    {
      "class": "shapeGroup",
      "id": "742F4187-C31D-49BB-958E-6A9CD12B2F61"
    },
    {
      "class": "shapeGroup",
      "id": "63DCBDCB-A0E4-4D26-98C0-ECC32960BC41"
    },
    {
      "class": "text",
      "id": "CDDA835B-F440-4F33-9055-8699AAD54405"
    }
  ],
  "name": "new_epic copy 10",
  "nameIsFixed": true,
  "resizingConstraint": 63,
  "resizingType": 0,
  "rotation": 0,
  "shouldBreakMaskChain": false,
  "style": {
    "_class": "style",
    "endDecorationType": 0,
    "miterLimit": 10,
    "startDecorationType": 0
  }
}